tidyverse
…
2.1 filter(): filter rows

2.1.1 Basic usage

You may need to “filter” rows based on some criteria. filter() can help you on this. Let’s select rows that belong to one species. For character & factor variables, you will need to double-quote them:

unique(iris$Species) # check what species exist in the data

## [1] setosa     versicolor virginica 
## Levels: setosa versicolor virginica

filter(iris, Species == "setosa")

## # A tibble: 50 x 5
##    Sepal.Length Sepal.Width Petal.Length Petal.Width Species
##           <dbl>       <dbl>        <dbl>       <dbl> <fct>  
##  1          5.1         3.5          1.4         0.2 setosa 
##  2          4.9         3            1.4         0.2 setosa 
##  3          4.7         3.2          1.3         0.2 setosa 
##  4          4.6         3.1          1.5         0.2 setosa 
##  5          5           3.6          1.4         0.2 setosa 
##  6          5.4         3.9          1.7         0.4 setosa 
##  7          4.6         3.4          1.4         0.3 setosa 
##  8          5           3.4          1.5         0.2 setosa 
##  9          4.4         2.9          1.4         0.2 setosa 
## 10          4.9         3.1          1.5         0.1 setosa 
## # ... with 40 more rows

You can choose two or more species at once:

filter(iris, Species %in% c("setosa", "versicolor"))

## # A tibble: 100 x 5
##    Sepal.Length Sepal.Width Petal.Length Petal.Width Species
##           <dbl>       <dbl>        <dbl>       <dbl> <fct>  
##  1          5.1         3.5          1.4         0.2 setosa 
##  2          4.9         3            1.4         0.2 setosa 
##  3          4.7         3.2          1.3         0.2 setosa 
##  4          4.6         3.1          1.5         0.2 setosa 
##  5          5           3.6          1.4         0.2 setosa 
##  6          5.4         3.9          1.7         0.4 setosa 
##  7          4.6         3.4          1.4         0.3 setosa 
##  8          5           3.4          1.5         0.2 setosa 
##  9          4.4         2.9          1.4         0.2 setosa 
## 10          4.9         3.1          1.5         0.1 setosa 
## # ... with 90 more rows

Alternatively, you might want to exclude data that belong to a specific species. You can do this by:

filter(iris, Species != "virginica")

## # A tibble: 100 x 5
##    Sepal.Length Sepal.Width Petal.Length Petal.Width Species
##           <dbl>       <dbl>        <dbl>       <dbl> <fct>  
##  1          5.1         3.5          1.4         0.2 setosa 
##  2          4.9         3            1.4         0.2 setosa 
##  3          4.7         3.2          1.3         0.2 setosa 
##  4          4.6         3.1          1.5         0.2 setosa 
##  5          5           3.6          1.4         0.2 setosa 
##  6          5.4         3.9          1.7         0.4 setosa 
##  7          4.6         3.4          1.4         0.3 setosa 
##  8          5           3.4          1.5         0.2 setosa 
##  9          4.4         2.9          1.4         0.2 setosa 
## 10          4.9         3.1          1.5         0.1 setosa 
## # ... with 90 more rows

Numeric variables can also be used to select rows:

# greater than 1.0
filter(iris, Petal.Width > 1.0)

## # A tibble: 93 x 5
##    Sepal.Length Sepal.Width Petal.Length Petal.Width Species   
##           <dbl>       <dbl>        <dbl>       <dbl> <fct>     
##  1          7           3.2          4.7         1.4 versicolor
##  2          6.4         3.2          4.5         1.5 versicolor
##  3          6.9         3.1          4.9         1.5 versicolor
##  4          5.5         2.3          4           1.3 versicolor
##  5          6.5         2.8          4.6         1.5 versicolor
##  6          5.7         2.8          4.5         1.3 versicolor
##  7          6.3         3.3          4.7         1.6 versicolor
##  8          6.6         2.9          4.6         1.3 versicolor
##  9          5.2         2.7          3.9         1.4 versicolor
## 10          5.9         3            4.2         1.5 versicolor
## # ... with 83 more rows

# equal or greater than 1.0
filter(iris, Petal.Width >= 1.0)

## # A tibble: 100 x 5
##    Sepal.Length Sepal.Width Petal.Length Petal.Width Species   
##           <dbl>       <dbl>        <dbl>       <dbl> <fct>     
##  1          7           3.2          4.7         1.4 versicolor
##  2          6.4         3.2          4.5         1.5 versicolor
##  3          6.9         3.1          4.9         1.5 versicolor
##  4          5.5         2.3          4           1.3 versicolor
##  5          6.5         2.8          4.6         1.5 versicolor
##  6          5.7         2.8          4.5         1.3 versicolor
##  7          6.3         3.3          4.7         1.6 versicolor
##  8          4.9         2.4          3.3         1   versicolor
##  9          6.6         2.9          4.6         1.3 versicolor
## 10          5.2         2.7          3.9         1.4 versicolor
## # ... with 90 more rows

# less than 1.0
filter(iris, Petal.Width < 1.0)

## # A tibble: 50 x 5
##    Sepal.Length Sepal.Width Petal.Length Petal.Width Species
##           <dbl>       <dbl>        <dbl>       <dbl> <fct>  
##  1          5.1         3.5          1.4         0.2 setosa 
##  2          4.9         3            1.4         0.2 setosa 
##  3          4.7         3.2          1.3         0.2 setosa 
##  4          4.6         3.1          1.5         0.2 setosa 
##  5          5           3.6          1.4         0.2 setosa 
##  6          5.4         3.9          1.7         0.4 setosa 
##  7          4.6         3.4          1.4         0.3 setosa 
##  8          5           3.4          1.5         0.2 setosa 
##  9          4.4         2.9          1.4         0.2 setosa 
## 10          4.9         3.1          1.5         0.1 setosa 
## # ... with 40 more rows

# less than 1.0
filter(iris, Petal.Width <= 1.0)

## # A tibble: 57 x 5
##    Sepal.Length Sepal.Width Petal.Length Petal.Width Species
##           <dbl>       <dbl>        <dbl>       <dbl> <fct>  
##  1          5.1         3.5          1.4         0.2 setosa 
##  2          4.9         3            1.4         0.2 setosa 
##  3          4.7         3.2          1.3         0.2 setosa 
##  4          4.6         3.1          1.5         0.2 setosa 
##  5          5           3.6          1.4         0.2 setosa 
##  6          5.4         3.9          1.7         0.4 setosa 
##  7          4.6         3.4          1.4         0.3 setosa 
##  8          5           3.4          1.5         0.2 setosa 
##  9          4.4         2.9          1.4         0.2 setosa 
## 10          4.9         3.1          1.5         0.1 setosa 
## # ... with 47 more rows
…
# Species equals "setosa" AND Petal.Length larger than 1.8

filter(iris, Species == "setosa" & Petal.Length > 1.8)

## # A tibble: 2 x 5
##   Sepal.Length Sepal.Width Petal.Length Petal.Width Species
##          <dbl>       <dbl>        <dbl>       <dbl> <fct>  
## 1          4.8         3.4          1.9         0.2 setosa 
## 2          5.1         3.8          1.9         0.4 setosa

# Species equals "setosa" OR Petal.Length larger than 5.0

filter(iris, Species == "setosa" | Petal.Length > 5)

## # A tibble: 92 x 5
##    Sepal.Length Sepal.Width Petal.Length Petal.Width Species
##           <dbl>       <dbl>        <dbl>       <dbl> <fct>  
##  1          5.1         3.5          1.4         0.2 setosa 
##  2          4.9         3            1.4         0.2 setosa 
##  3          4.7         3.2          1.3         0.2 setosa 
##  4          4.6         3.1          1.5         0.2 setosa 
##  5          5           3.6          1.4         0.2 setosa 
##  6          5.4         3.9          1.7         0.4 setosa 
##  7          4.6         3.4          1.4         0.3 setosa 
##  8          5           3.4          1.5         0.2 setosa 
##  9          4.4         2.9          1.4         0.2 setosa 
## 10          4.9         3.1          1.5         0.1 setosa 
## # ... with 82 more rows
…
Select rows with species setosa and virginica

Select rows with species other than setosa

Select rows with sepal length greater than 5.0 in iris.

2.2 select(): select columns

2.2.1 Basic usage

You can also select columns. Let’s select Petal.Width using select(). This function takes column names as arguments.

select(iris, Petal.Width)

## # A tibble: 150 x 1
##    Petal.Width
##          <dbl>
##  1         0.2
##  2         0.2
##  3         0.2
##  4         0.2
##  5         0.2
##  6         0.4
##  7         0.3
##  8         0.2
##  9         0.2
## 10         0.1
## # ... with 140 more rows

You can select multiple columns like:

select(iris, Petal.Width, Petal.Length)

## # A tibble: 150 x 2
##    Petal.Width Petal.Length
##          <dbl>        <dbl>
##  1         0.2          1.4
##  2         0.2          1.4
##  3         0.2          1.3
##  4         0.2          1.5
##  5         0.2          1.4
##  6         0.4          1.7
##  7         0.3          1.4
##  8         0.2          1.5
##  9         0.2          1.4
## 10         0.1          1.5
## # ... with 140 more rows

Or remove specific columns with - notation:

select(iris, -Petal.Width)

## # A tibble: 150 x 4
##    Sepal.Length Sepal.Width Petal.Length Species
##           <dbl>       <dbl>        <dbl> <fct>  
##  1          5.1         3.5          1.4 setosa 
##  2          4.9         3            1.4 setosa 
##  3          4.7         3.2          1.3 setosa 
##  4          4.6         3.1          1.5 setosa 
##  5          5           3.6          1.4 setosa 
##  6          5.4         3.9          1.7 setosa 
##  7          4.6         3.4          1.4 setosa 
##  8          5           3.4          1.5 setosa 
##  9          4.4         2.9          1.4 setosa 
## 10          4.9         3.1          1.5 setosa 
## # ... with 140 more rows

You may pick columns starting with specific strings:

select(iris, starts_with("Petal"))

## # A tibble: 150 x 2
##    Petal.Length Petal.Width
##           <dbl>       <dbl>
##  1          1.4         0.2
##  2          1.4         0.2
##  3          1.3         0.2
##  4          1.5         0.2
##  5          1.4         0.2
##  6          1.7         0.4
##  7          1.4         0.3
##  8          1.5         0.2
##  9          1.4         0.2
## 10          1.5         0.1
## # ... with 140 more rows

Or columns ending with specific strings:

select(iris, ends_with("Width"))

## # A tibble: 150 x 2
##    Sepal.Width Petal.Width
##          <dbl>       <dbl>
##  1         3.5         0.2
##  2         3           0.2
##  3         3.2         0.2
##  4         3.1         0.2
##  5         3.6         0.2
##  6         3.9         0.4
##  7         3.4         0.3
##  8         3.4         0.2
##  9         2.9         0.2
## 10         3.1         0.1
## # ... with 140 more rows
…
2.3 mutate(): add new columns

2.3.1 Basic usage

Sometimes, you want to add new columns to the data frame. We can add new columns with the same number of elements (i.e., number of rows). We use mutate():

# new variable x
x <- 1:nrow(iris)

# add x to iris as "new_bar"
iris_x <- mutate(iris, new_var = x)

iris_x

## # A tibble: 150 x 6
##    Sepal.Length Sepal.Width Petal.Length Petal.Width Species new_var
##           <dbl>       <dbl>        <dbl>       <dbl> <fct>     <int>
##  1          5.1         3.5          1.4         0.2 setosa        1
##  2          4.9         3            1.4         0.2 setosa        2
##  3          4.7         3.2          1.3         0.2 setosa        3
##  4          4.6         3.1          1.5         0.2 setosa        4
##  5          5           3.6          1.4         0.2 setosa        5
##  6          5.4         3.9          1.7         0.4 setosa        6
##  7          4.6         3.4          1.4         0.3 setosa        7
##  8          5           3.4          1.5         0.2 setosa        8
##  9          4.4         2.9          1.4         0.2 setosa        9
## 10          4.9         3.1          1.5         0.1 setosa       10
## # ... with 140 more rows

2.4 arrange(): arrange row orders

2.4.1 Basic usage

You can arrange order of rows with arrange() function. Let’s arrange the data by Sepal.Width. By default, the data will be arrange in an ascending order:

arrange(iris, Sepal.Width)

## # A tibble: 150 x 5
##    Sepal.Length Sepal.Width Petal.Length Petal.Width Species   
##           <dbl>       <dbl>        <dbl>       <dbl> <fct>     
##  1          5           2            3.5         1   versicolor
##  2          6           2.2          4           1   versicolor
##  3          6.2         2.2          4.5         1.5 versicolor
##  4          6           2.2          5           1.5 virginica 
##  5          4.5         2.3          1.3         0.3 setosa    
##  6          5.5         2.3          4           1.3 versicolor
##  7          6.3         2.3          4.4         1.3 versicolor
##  8          5           2.3          3.3         1   versicolor
##  9          4.9         2.4          3.3         1   versicolor
## 10          5.5         2.4          3.8         1.1 versicolor
## # ... with 140 more rows

You can do a descending order by wrapping the column name with desc()

arrange(iris, desc(Sepal.Width))

## # A tibble: 150 x 5
##    Sepal.Length Sepal.Width Petal.Length Petal.Width Species
##           <dbl>       <dbl>        <dbl>       <dbl> <fct>  
##  1          5.7         4.4          1.5         0.4 setosa 
##  2          5.5         4.2          1.4         0.2 setosa 
##  3          5.2         4.1          1.5         0.1 setosa 
##  4          5.8         4            1.2         0.2 setosa 
##  5          5.4         3.9          1.7         0.4 setosa 
##  6          5.4         3.9          1.3         0.4 setosa 
##  7          5.7         3.8          1.7         0.3 setosa 
##  8          5.1         3.8          1.5         0.3 setosa 
##  9          5.1         3.8          1.9         0.4 setosa 
## 10          5.1         3.8          1.6         0.2 setosa 
## # ... with 140 more rows
…
Choose rows 5, 9, and 98

2.6 %>%: pipe

2.6.1 Basic usage

Data manipulation usually involves multiple processes. For example, you might want to reduce the number of columns and then filter rows. This can be done with the following script:

df_selected <- select(iris, Sepal.Length, Species)
df_final <- filter(df_selected, Species == "setosa")

print(df_final)

## # A tibble: 50 x 2
##    Sepal.Length Species
##           <dbl> <fct>  
##  1          5.1 setosa 
##  2          4.9 setosa 
##  3          4.7 setosa 
##  4          4.6 setosa 
##  5          5   setosa 
##  6          5.4 setosa 
##  7          4.6 setosa 
##  8          5   setosa 
##  9          4.4 setosa 
## 10          4.9 setosa 
## # ... with 40 more rows

However, as the number of processes increases, the temporary data frames will increase - this is problematic from the perspective of readability of codes (critical to avoiding potential errors).

Most functions in tidyverse package will take a data frame as the first argument and then let you enter the command that you want to perform in the second argument. This arrangement is very useful when combined with pipe notation %>%. It is a little tricky to explain how pipes work, so let’s take a look at the following example:

df_final <- iris %>% 
  select(Sepal.Length,
         Species) %>% 
  filter(Species == "setosa")

print(df_final)

## # A tibble: 50 x 2
##    Sepal.Length Species
##           <dbl> <fct>  
##  1          5.1 setosa 
##  2          4.9 setosa 
##  3          4.7 setosa 
##  4          4.6 setosa 
##  5          5   setosa 
##  6          5.4 setosa 
##  7          4.6 setosa 
##  8          5   setosa 
##  9          4.4 setosa 
## 10          4.9 setosa 
## # ... with 40 more rows
…
Arrange data rows according to Sepal.Length and add a new column with sequential ID numbers (0 - 100) from the shortest to the longest Sepal.Length

3 GROUP MANIPULATION

3.1 group_by() and summarize()

3.1.1 Basic usage

One of the beauties in tidyverse is its ability to manipulate data by group - for example, it is very common for ecologists to show summary statistics by species. Such manipulation can be cumbersome, but with tidyverse, magic will happen. We will use group_by() function to create a group structure in a data frame:

iris_grouped <- group_by(iris, Species)
print(iris_grouped)

## # A tibble: 150 x 5
## # Groups:   Species [3]
##    Sepal.Length Sepal.Width Petal.Length Petal.Width Species
##           <dbl>       <dbl>        <dbl>       <dbl> <fct>  
##  1          5.1         3.5          1.4         0.2 setosa 
##  2          4.9         3            1.4         0.2 setosa 
##  3          4.7         3.2          1.3         0.2 setosa 
##  4          4.6         3.1          1.5         0.2 setosa 
##  5          5           3.6          1.4         0.2 setosa 
##  6          5.4         3.9          1.7         0.4 setosa 
##  7          4.6         3.4          1.4         0.3 setosa 
##  8          5           3.4          1.5         0.2 setosa 
##  9          4.4         2.9          1.4         0.2 setosa 
## 10          4.9         3.1          1.5         0.1 setosa 
## # ... with 140 more rows
…
